Tidyverse Workshop
…
::: { .item border-right: dashed 3pt black; } 

```r
dat %>% 
  pivot_longer(cols = CD:PR)
```

That's all!

::: 

::: item 

```
  # A tibble: 2,675 x 2
     name  value
     <chr> <dbl>
   1 CD       28
   2 CR       12
   3 DF     2315
   4 RA      -10
   5 PR       46
   6 CD       27
   7 CR       15
   8 DF     2304
   9 RA       -8
  10 PR       49
  # â€¦ with 2,665 more rows
```
…
